^C:\USERS\JUSTINE\DOCUMENTS\ASPPROPRE\KOZEI\SRC\TRAITEMENT_LIB\DATASTRUCTURE.CPP
/c /ZI /nologo /W3 /WX- /sdl /Od /Oy- /D WIN32 /D _DEBUG /D _WINDOWS /D _USRDLL /D TRAITEMENT_LIB_EXPORTS /D _WINDLL /D _UNICODE /D UNICODE /Gm /EHsc /RTC1 /MDd /GS /fp:precise /Zc:wchar_t /Zc:forScope /Fo"DEBUG\\" /Fd"DEBUG\VC120.PDB" /Gd /TP /analyze- C:\USERS\JUSTINE\DOCUMENTS\ASPPROPRE\KOZEI\SRC\TRAITEMENT_LIB\DATASTRUCTURE.CPP
^C:\USERS\JUSTINE\DOCUMENTS\ASPPROPRE\KOZEI\SRC\TRAITEMENT_LIB\ESTIMATIONPARAM.CPP
/c /ZI /nologo /W3 /WX- /sdl /Od /Oy- /D WIN32 /D _DEBUG /D _WINDOWS /D _USRDLL /D TRAITEMENT_LIB_EXPORTS /D _WINDLL /D _UNICODE /D UNICODE /Gm /EHsc /RTC1 /MDd /GS /fp:precise /Zc:wchar_t /Zc:forScope /Fo"DEBUG\\" /Fd"DEBUG\VC120.PDB" /Gd /TP /analyze- C:\USERS\JUSTINE\DOCUMENTS\ASPPROPRE\KOZEI\SRC\TRAITEMENT_LIB\ESTIMATIONPARAM.CPP
^C:\USERS\JUSTINE\DOCUMENTS\ASPPROPRE\KOZEI\SRC\TRAITEMENT_LIB\RETRIEVEDATA.CPP
/c /ZI /nologo /W3 /WX- /sdl /Od /Oy- /D WIN32 /D _DEBUG /D _WINDOWS /D _USRDLL /D TRAITEMENT_LIB_EXPORTS /D _WINDLL /D _UNICODE /D UNICODE /Gm /EHsc /RTC1 /MDd /GS /fp:precise /Zc:wchar_t /Zc:forScope /Fo"DEBUG\\" /Fd"DEBUG\VC120.PDB" /Gd /TP /analyze- C:\USERS\JUSTINE\DOCUMENTS\ASPPROPRE\KOZEI\SRC\TRAITEMENT_LIB\RETRIEVEDATA.CPP
