Actif;Date;GBP/EUR
GBP;31/12/2014;1,283862
GBP;30/12/2014;1,278282
GBP;29/12/2014;1,275185
GBP;28/12/2014;1,271456
GBP;27/12/2014;1,271456
GBP;26/12/2014;1,271456
GBP;25/12/2014;1,271456
GBP;24/12/2014;1,271456
GBP;23/12/2014;1,271133
GBP;22/12/2014;1,274048
GBP;21/12/2014;1,274372
GBP;20/12/2014;1,274372
GBP;19/12/2014;1,274372
GBP;18/12/2014;1,271456
GBP;17/12/2014;1,260716
GBP;16/12/2014;1,255493
GBP;15/12/2014;1,260081
GBP;14/12/2014;1,26183
GBP;13/12/2014;1,26183
GBP;12/12/2014;1,26183
GBP;11/12/2014;1,261511
GBP;10/12/2014;1,266223
GBP;09/12/2014;1,265582
GBP;08/12/2014;1,274697
GBP;07/12/2014;1,268875
GBP;06/12/2014;1,268875
GBP;05/12/2014;1,268875
GBP;04/12/2014;1,272103
GBP;03/12/2014;1,271941
GBP;02/12/2014;1,260081
GBP;01/12/2014;1,261511
GBP;30/11/2014;1,257387
GBP;29/11/2014;1,257387
GBP;28/11/2014;1,257387
GBP;27/11/2014;1,262626
GBP;26/11/2014;1,264302
GBP;25/11/2014;1,261193
GBP;24/11/2014;1,263264
GBP;23/11/2014;1,262467
GBP;22/11/2014;1,262467
GBP;21/11/2014;1,262467
GBP;20/11/2014;1,251721
GBP;19/11/2014;1,250547
GBP;18/11/2014;1,250938
GBP;17/11/2014;1,251721
GBP;16/11/2014;1,258812
GBP;15/11/2014;1,258812
GBP;14/11/2014;1,258812
GBP;13/11/2014;1,263903
GBP;12/11/2014;1,269036
GBP;11/11/2014;1,276161
GBP;10/11/2014;1,273561
GBP;09/11/2014;1,276487
GBP;08/11/2014;1,276487
GBP;07/11/2014;1,276487
GBP;06/11/2014;1,272022
GBP;05/11/2014;1,275022
GBP;04/11/2014;1,278936
GBP;03/11/2014;1,280656
GBP;02/11/2014;1,275104
GBP;01/11/2014;1,275104
GBP;31/10/2014;1,275104
GBP;30/10/2014;1,270325
GBP;29/10/2014;1,264302
GBP;28/10/2014;1,268875
GBP;27/10/2014;1,270487
GBP;26/10/2014;1,267909
GBP;25/10/2014;1,267909
GBP;24/10/2014;1,267909
GBP;23/10/2014;1,265182
GBP;22/10/2014;1,264382
GBP;21/10/2014;1,265823
GBP;20/10/2014;1,263584
GBP;19/10/2014;1,257071
GBP;18/10/2014;1,257071
GBP;17/10/2014;1,257071
GBP;16/10/2014;1,254705
GBP;15/10/2014;1,256755
GBP;14/10/2014;1,258653
GBP;13/10/2014;1,269036
GBP;12/10/2014;1,268714
GBP;11/10/2014;1,268714
GBP;10/10/2014;1,268714
GBP;09/10/2014;1,269841
GBP;08/10/2014;1,270648
GBP;07/10/2014;1,27551
GBP;06/10/2014;1,272669
GBP;05/10/2014;1,27348
GBP;04/10/2014;1,27348
GBP;03/10/2014;1,27348
GBP;02/10/2014;1,278119
GBP;01/10/2014;1,285017
GBP;30/09/2014;1,286505
GBP;29/09/2014;1,277629
GBP;28/09/2014;1,280902
GBP;27/09/2014;1,280902
GBP;26/09/2014;1,280902
GBP;25/09/2014;1,281394
GBP;24/09/2014;1,278282
GBP;23/09/2014;1,272265
GBP;22/09/2014;1,271294
GBP;21/09/2014;1,271456
GBP;20/09/2014;1,271456
GBP;19/09/2014;1,271456
GBP;18/09/2014;1,268553
GBP;17/09/2014;1,260081
GBP;16/09/2014;1,251251
GBP;15/09/2014;1,257941
GBP;14/09/2014;1,255335
GBP;13/09/2014;1,255335
GBP;12/09/2014;1,255335
GBP;11/09/2014;1,256597
GBP;10/09/2014;1,24805
GBP;09/09/2014;1,249219
GBP;08/09/2014;1,246339
GBP;07/09/2014;1,258574
GBP;06/09/2014;1,258574
GBP;05/09/2014;1,258574
GBP;04/09/2014;1,260716
GBP;03/09/2014;1,25227
GBP;02/09/2014;1,260557
GBP;01/09/2014;1,265422
GBP;31/08/2014;1,257387
GBP;30/08/2014;1,257387
GBP;29/08/2014;1,257387
GBP;28/08/2014;1,258653
GBP;27/08/2014;1,259446
GBP;26/08/2014;1,256202
GBP;25/08/2014;1,256802
GBP;24/08/2014;1,249531
GBP;23/08/2014;1,249531
GBP;22/08/2014;1,249531
GBP;21/08/2014;1,251173
GBP;20/08/2014;1,252976
GBP;19/08/2014;1,245873
GBP;18/08/2014;1,249688
GBP;17/08/2014;1,24665
GBP;16/08/2014;1,24665
GBP;15/08/2014;1,24665
GBP;14/08/2014;1,247505
GBP;13/08/2014;1,250469
GBP;12/08/2014;1,257071
GBP;11/08/2014;1,253761
GBP;10/08/2014;1,255178
GBP;09/08/2014;1,255178
GBP;08/08/2014;1,255178
GBP;07/08/2014;1,259446
GBP;06/08/2014;1,261273
GBP;05/08/2014;1,259604
GBP;04/08/2014;1,25439
GBP;03/08/2014;1,256124
GBP;02/08/2014;1,256124
GBP;01/08/2014;1,256124
GBP;31/07/2014;1,261352
GBP;30/07/2014;1,263105
GBP;29/07/2014;1,261989
GBP;28/07/2014;1,264942
GBP;27/07/2014;1,263983
GBP;26/07/2014;1,263983
GBP;25/07/2014;1,263983
GBP;24/07/2014;1,262387
GBP;23/07/2014;1,264542
GBP;22/07/2014;1,265022
GBP;21/07/2014;1,263424
GBP;20/07/2014;1,263344
GBP;19/07/2014;1,263344
GBP;18/07/2014;1,263344
GBP;17/07/2014;1,264382
GBP;16/07/2014;1,265342
GBP;15/07/2014;1,260875
GBP;14/07/2014;1,255335
GBP;13/07/2014;1,259287
GBP;12/07/2014;1,259287
GBP;11/07/2014;1,259287
